{
	"format_version": "1.8.0",
	"animations": {
		"walk": {
			"loop": true,
			"animation_length": 2.5,
			"bones": {
				"PiernaIzq": {
					"rotation": {
						"0.0": {
							"vector": [16.76171, -4.51235, -3.02323]
						},
						"1.25": {
							"vector": [-18.23829, -4.51235, -3.02323]
						},
						"2.5": {
							"vector": [16.76171, -4.51235, -3.02323]
						}
					},
					"position": {
						"0.0": {
							"vector": [0, 0, 2]
						},
						"1.25": {
							"vector": [0, -1, -3]
						},
						"2.5": {
							"vector": [0, 0, 2]
						}
					}
				},
				"PiernaDer": {
					"rotation": {
						"0.0": {
							"vector": [-12.5, 0, 0]
						},
						"1.25": {
							"vector": [14.91665, -2.17427, 1.28708]
						},
						"2.5": {
							"vector": [-12.5, 0, 0]
						}
					},
					"position": {
						"0.0": {
							"vector": [0, 0, -2]
						},
						"1.25": {
							"vector": [0, 0, 2]
						},
						"2.5": {
							"vector": [0, 0, -2]
						}
					}
				}
			}
		},
		"idle": {
			"loop": true
		},
		"attack": {
			"loop": "hold_on_last_frame",
			"animation_length": 0.5,
			"bones": {
				"Brazo1": {
					"rotation": {
						"0.0": {
							"vector": [0, 0, 0]
						},
						"0.5": {
							"vector": [-140.0692, 0.37993, -0.43576]
						}
					},
					"position": {
						"vector": [0, 0, 0]
					}
				}
			}
		}
	},
	"geckolib_format_version": 2
}