{
  "credit": "Made with Blockbench",
  "texture_size": [
    32,
    32
  ],
  "elements": [
    {
      "name": "Empuñadura",
      "from": [
        8,
        -4,
        5
      ],
      "to": [
        10,
        8,
        7
      ],
      "rotation": {
        "angle": 0,
        "axis": "y",
        "origin": [
          0,
          2,
          0
        ]
      },
      "faces": {
        "north": {
          "uv": [
            6,
            7.5,
            7,
            13.5
          ],
          "texture": "#0"
        },
        "east": {
          "uv": [
            7,
            7.5,
            8,
            13.5
          ],
          "texture": "#0"
        },
        "south": {
          "uv": [
            0,
            8,
            1,
            14
          ],
          "texture": "#0"
        },
        "west": {
          "uv": [
            8,
            0,
            9,
            6
          ],
          "texture": "#0"
        },
        "up": {
          "uv": [
            8,
            14.5,
            7,
            13.5
          ],
          "texture": "#0"
        },
        "down": {
          "uv": [
            9,
            13.5,
            8,
            14.5
          ],
          "texture": "#0"
        }
      }
    },
    {
      "name": "Pomo",
      "from": [
        8,
        4,
        4
      ],
      "to": [
        10,
        6,
        8
      ],
      "faces": {
        "north": {
          "uv": [
            0,
            14,
            1,
            15
          ],
          "texture": "#0"
        },
        "east": {
          "uv": [
            10,
            4,
            12,
            5
          ],
          "texture": "#0"
        },
        "south": {
          "uv": [
            1,
            14,
            2,
            15
          ],
          "texture": "#0"
        },
        "west": {
          "uv": [
            10,
            5,
            12,
            6
          ],
          "texture": "#0"
        },
        "up": {
          "uv": [
            11,
            8,
            10,
            6
          ],
          "texture": "#0"
        },
        "down": {
          "uv": [
            11,
            8,
            10,
            10
          ],
          "texture": "#0"
        }
      }
    },
    {
      "name": "Pomo",
      "from": [
        8,
        -6,
        4
      ],
      "to": [
        10,
        -4,
        8
      ],
      "faces": {
        "north": {
          "uv": [
            2,
            14,
            3,
            15
          ],
          "texture": "#0"
        },
        "east": {
          "uv": [
            9,
            10,
            11,
            11
          ],
          "texture": "#0"
        },
        "south": {
          "uv": [
            14,
            4,
            15,
            5
          ],
          "texture": "#0"
        },
        "west": {
          "uv": [
            11,
            6,
            13,
            7
          ],
          "texture": "#0"
        },
        "up": {
          "uv": [
            12,
            9,
            11,
            7
          ],
          "texture": "#0"
        },
        "down": {
          "uv": [
            10,
            11,
            9,
            13
          ],
          "texture": "#0"
        }
      }
    },
    {
      "name": "Guar1",
      "from": [
        8,
        9,
        -4
      ],
      "to": [
        10,
        10,
        10
      ],
      "faces": {
        "north": {
          "uv": [
            13.5,
            2.5,
            14.5,
            3
          ],
          "texture": "#0"
        },
        "east": {
          "uv": [
            9,
            0,
            16,
            0.5
          ],
          "texture": "#0"
        },
        "south": {
          "uv": [
            8,
            14.5,
            9,
            15
          ],
          "texture": "#0"
        },
        "west": {
          "uv": [
            9,
            0.5,
            16,
            1
          ],
          "texture": "#0"
        },
        "up": {
          "uv": [
            5,
            14.5,
            4,
            7.5
          ],
          "texture": "#0"
        },
        "down": {
          "uv": [
            6,
            7.5,
            5,
            14.5
          ],
          "texture": "#0"
        }
      }
    },
    {
      "name": "Guar2",
      "from": [
        8,
        10,
        5
      ],
      "to": [
        10,
        14,
        7
      ],
      "faces": {
        "north": {
          "uv": [
            11,
            9,
            12,
            11
          ],
          "texture": "#0"
        },
        "east": {
          "uv": [
            10,
            11,
            11,
            13
          ],
          "texture": "#0"
        },
        "south": {
          "uv": [
            11,
            11,
            12,
            13
          ],
          "texture": "#0"
        },
        "west": {
          "uv": [
            12,
            4,
            13,
            6
          ],
          "texture": "#0"
        },
        "up": {
          "uv": [
            15,
            6,
            14,
            5
          ],
          "texture": "#0"
        },
        "down": {
          "uv": [
            15,
            6,
            14,
            7
          ],
          "texture": "#0"
        }
      }
    },
    {
      "name": "Guar3",
      "from": [
        8,
        8,
        -2
      ],
      "to": [
        10,
        9,
        10
      ],
      "faces": {
        "north": {
          "uv": [
            9,
            14.5,
            10,
            15
          ],
          "texture": "#0"
        },
        "east": {
          "uv": [
            10,
            3,
            16,
            3.5
          ],
          "texture": "#0"
        },
        "south": {
          "uv": [
            10,
            14.5,
            11,
            15
          ],
          "texture": "#0"
        },
        "west": {
          "uv": [
            10,
            3.5,
            16,
            4
          ],
          "texture": "#0"
        },
        "up": {
          "uv": [
            2,
            14,
            1,
            8
          ],
          "texture": "#0"
        },
        "down": {
          "uv": [
            3,
            8,
            2,
            14
          ],
          "texture": "#0"
        }
      }
    },
    {
      "name": "Hoja1",
      "from": [
        8,
        13,
        9
      ],
      "to": [
        10,
        16,
        11
      ],
      "faces": {
        "north": {
          "uv": [
            13,
            8,
            14,
            9.5
          ],
          "texture": "#0"
        },
        "east": {
          "uv": [
            9,
            13,
            10,
            14.5
          ],
          "texture": "#0"
        },
        "south": {
          "uv": [
            13,
            9.5,
            14,
            11
          ],
          "texture": "#0"
        },
        "west": {
          "uv": [
            10,
            13,
            11,
            14.5
          ],
          "texture": "#0"
        },
        "up": {
          "uv": [
            15,
            8,
            14,
            7
          ],
          "texture": "#0"
        },
        "down": {
          "uv": [
            15,
            8,
            14,
            9
          ],
          "texture": "#0"
        }
      }
    },
    {
      "name": "Hoja1.1",
      "from": [
        8,
        13,
        0
      ],
      "to": [
        10,
        16,
        2
      ],
      "faces": {
        "north": {
          "uv": [
            11,
            13,
            12,
            14.5
          ],
          "texture": "#0"
        },
        "east": {
          "uv": [
            13,
            11,
            14,
            12.5
          ],
          "texture": "#0"
        },
        "south": {
          "uv": [
            12,
            13,
            13,
            14.5
          ],
          "texture": "#0"
        },
        "west": {
          "uv": [
            13,
            12.5,
            14,
            14
          ],
          "texture": "#0"
        },
        "up": {
          "uv": [
            15,
            10,
            14,
            9
          ],
          "texture": "#0"
        },
        "down": {
          "uv": [
            15,
            10,
            14,
            11
          ],
          "texture": "#0"
        }
      }
    },
    {
      "name": "Hoja2",
      "from": [
        8,
        16,
        5
      ],
      "to": [
        10,
        32,
        7
      ],
      "faces": {
        "north": {
          "uv": [
            0,
            0,
            1,
            8
          ],
          "texture": "#0"
        },
        "east": {
          "uv": [
            1,
            0,
            2,
            8
          ],
          "texture": "#0"
        },
        "south": {
          "uv": [
            2,
            0,
            3,
            8
          ],
          "texture": "#0"
        },
        "west": {
          "uv": [
            3,
            0,
            4,
            8
          ],
          "texture": "#0"
        },
        "up": {
          "uv": [
            15,
            12,
            14,
            11
          ],
          "texture": "#0"
        },
        "down": {
          "uv": [
            15,
            12,
            14,
            13
          ],
          "texture": "#0"
        }
      }
    },
    {
      "name": "Hoja3",
      "from": [
        8,
        10,
        -2
      ],
      "to": [
        10,
        14,
        0
      ],
      "faces": {
        "north": {
          "uv": [
            12,
            7,
            13,
            9
          ],
          "texture": "#0"
        },
        "east": {
          "uv": [
            12,
            9,
            13,
            11
          ],
          "texture": "#0"
        },
        "south": {
          "uv": [
            12,
            11,
            13,
            13
          ],
          "texture": "#0"
        },
        "west": {
          "uv": [
            12.5,
            1,
            13.5,
            3
          ],
          "texture": "#0"
        },
        "up": {
          "uv": [
            14,
            15,
            13,
            14
          ],
          "texture": "#0"
        },
        "down": {
          "uv": [
            15,
            13,
            14,
            14
          ],
          "texture": "#0"
        }
      }
    },
    {
      "name": "Hoja4",
      "from": [
        8,
        16,
        4
      ],
      "to": [
        10,
        31,
        5
      ],
      "faces": {
        "north": {
          "uv": [
            4,
            0,
            5,
            7.5
          ],
          "texture": "#0"
        },
        "east": {
          "uv": [
            3,
            8,
            3.5,
            15.5
          ],
          "texture": "#0"
        },
        "south": {
          "uv": [
            5,
            0,
            6,
            7.5
          ],
          "texture": "#0"
        },
        "west": {
          "uv": [
            3.5,
            8,
            4,
            15.5
          ],
          "texture": "#0"
        },
        "up": {
          "uv": [
            12,
            15,
            11,
            14.5
          ],
          "texture": "#0"
        },
        "down": {
          "uv": [
            13,
            14.5,
            12,
            15
          ],
          "texture": "#0"
        }
      }
    },
    {
      "name": "Hoja5",
      "from": [
        8,
        16,
        7
      ],
      "to": [
        10,
        31,
        8
      ],
      "faces": {
        "north": {
          "uv": [
            6,
            0,
            7,
            7.5
          ],
          "texture": "#0"
        },
        "east": {
          "uv": [
            8,
            6,
            8.5,
            13.5
          ],
          "texture": "#0"
        },
        "south": {
          "uv": [
            7,
            0,
            8,
            7.5
          ],
          "texture": "#0"
        },
        "west": {
          "uv": [
            8.5,
            6,
            9,
            13.5
          ],
          "texture": "#0"
        },
        "up": {
          "uv": [
            15.5,
            14.5,
            14.5,
            14
          ],
          "texture": "#0"
        },
        "down": {
          "uv": [
            15.5,
            14.5,
            14.5,
            15
          ],
          "texture": "#0"
        }
      }
    },
    {
      "name": "Hoja6",
      "from": [
        8,
        13,
        -1
      ],
      "to": [
        10,
        17,
        0
      ],
      "faces": {
        "north": {
          "uv": [
            13,
            4,
            14,
            6
          ],
          "texture": "#0"
        },
        "east": {
          "uv": [
            14,
            14,
            14.5,
            16
          ],
          "texture": "#0"
        },
        "south": {
          "uv": [
            13,
            6,
            14,
            8
          ],
          "texture": "#0"
        },
        "west": {
          "uv": [
            14.5,
            1,
            15,
            3
          ],
          "texture": "#0"
        },
        "up": {
          "uv": [
            1,
            15.5,
            0,
            15
          ],
          "texture": "#0"
        },
        "down": {
          "uv": [
            2,
            15,
            1,
            15.5
          ],
          "texture": "#0"
        }
      }
    },
    {
      "name": "Hoja7",
      "from": [
        8,
        14,
        11
      ],
      "to": [
        10,
        17,
        12
      ],
      "faces": {
        "north": {
          "uv": [
            13.5,
            1,
            14.5,
            2.5
          ],
          "texture": "#0"
        },
        "east": {
          "uv": [
            7,
            14.5,
            7.5,
            16
          ],
          "texture": "#0"
        },
        "south": {
          "uv": [
            6,
            13.5,
            7,
            15
          ],
          "texture": "#0"
        },
        "west": {
          "uv": [
            7.5,
            14.5,
            8,
            16
          ],
          "texture": "#0"
        },
        "up": {
          "uv": [
            16,
            1.5,
            15,
            1
          ],
          "texture": "#0"
        },
        "down": {
          "uv": [
            16,
            1.5,
            15,
            2
          ],
          "texture": "#0"
        }
      }
    },
    {
      "name": "Hoja8",
      "from": [
        8,
        14,
        2
      ],
      "to": [
        10,
        16,
        9
      ],
      "faces": {
        "north": {
          "uv": [
            4,
            14.5,
            5,
            15.5
          ],
          "texture": "#0"
        },
        "east": {
          "uv": [
            9,
            1,
            12.5,
            2
          ],
          "texture": "#0"
        },
        "south": {
          "uv": [
            5,
            14.5,
            6,
            15.5
          ],
          "texture": "#0"
        },
        "west": {
          "uv": [
            9,
            2,
            12.5,
            3
          ],
          "texture": "#0"
        },
        "up": {
          "uv": [
            10,
            6.5,
            9,
            3
          ],
          "texture": "#0"
        },
        "down": {
          "uv": [
            10,
            6.5,
            9,
            10
          ],
          "texture": "#0"
        }
      }
    }
  ],
  "display": {
    "thirdperson_righthand": {
      "rotation": [
        180,
        0,
        -180
      ],
      "translation": [
        1,
        4.25,
        0.25
      ]
    },
    "thirdperson_lefthand": {
      "translation": [
        0,
        4.25,
        4.25
      ]
    },
    "firstperson_righthand": {
      "rotation": [
        -5,
        -167,
        3
      ],
      "translation": [
        0,
        2.75,
        0
      ],
      "scale": [
        0.53,
        0.61,
        0.43
      ]
    },
    "firstperson_lefthand": {
      "scale": [
        0.53,
        0.61,
        0.43
      ]
    },
    "gui": {
      "rotation": [
        -69.51,
        -37.94,
        -64.44
      ],
      "translation": [
        -2.75,
        -0.25,
        -6.25
      ],
      "scale": [
        0.98,
        0.63,
        0.63281
      ]
    },
    "fixed": {
      "rotation": [
        7,
        89,
        -4
      ],
      "translation": [
        1,
        -0.25,
        -1
      ],
      "scale": [
        1.04,
        1,
        1
      ]
    }
  },
  "groups": [
    {
      "name": "Espada",
      "origin": [
        8,
        8,
        8
      ],
      "color": 0,
      "children": [
        0,
        1,
        2,
        {
          "name": "Guarnición",
          "origin": [
            8,
            8,
            8
          ],
          "color": 0,
          "children": [
            3,
            4,
            5
          ]
        },
        {
          "name": "Hoja",
          "origin": [
            8,
            8,
            8
          ],
          "color": 0,
          "children": [
            6,
            7,
            8,
            9,
            10,
            11,
            12,
            13,
            14
          ]
        }
      ]
    }
  ]
}