{
  "credit": "Made with Blockbench",
  "parent": "Hacha Logica ",
  "texture_size": [
    64,
    64
  ],
  "elements": [
    {
      "from": [
        0,
        0,
        0
      ],
      "to": [
        3,
        13,
        3
      ],
      "faces": {
        "north": {
          "uv": [
            0,
            4.5,
            0.75,
            7.75
          ],
          "texture": "#0"
        },
        "east": {
          "uv": [
            0.75,
            4.5,
            1.5,
            7.75
          ],
          "texture": "#0"
        },
        "south": {
          "uv": [
            1.5,
            4.5,
            2.25,
            7.75
          ],
          "texture": "#0"
        },
        "west": {
          "uv": [
            2.25,
            4.5,
            3,
            7.75
          ],
          "texture": "#0"
        },
        "up": {
          "uv": [
            7.75,
            5.25,
            7,
            4.5
          ],
          "texture": "#0"
        },
        "down": {
          "uv": [
            7.75,
            5.25,
            7,
            6
          ],
          "texture": "#0"
        }
      }
    },
    {
      "from": [
        0,
        -2,
        0
      ],
      "to": [
        3,
        0,
        3
      ],
      "faces": {
        "north": {
          "uv": [
            7,
            6,
            7.75,
            6.5
          ],
          "texture": "#0"
        },
        "east": {
          "uv": [
            5,
            7.25,
            5.75,
            7.75
          ],
          "texture": "#0"
        },
        "south": {
          "uv": [
            7.5,
            6.5,
            8.25,
            7
          ],
          "texture": "#0"
        },
        "west": {
          "uv": [
            6.75,
            7.5,
            7.5,
            8
          ],
          "texture": "#0"
        },
        "up": {
          "uv": [
            8,
            0.75,
            7.25,
            0
          ],
          "texture": "#0"
        },
        "down": {
          "uv": [
            8,
            0.75,
            7.25,
            1.5
          ],
          "texture": "#0"
        }
      }
    },
    {
      "from": [
        0,
        13,
        -7
      ],
      "to": [
        3,
        22,
        10
      ],
      "faces": {
        "north": {
          "uv": [
            3,
            4.5,
            3.75,
            6.75
          ],
          "texture": "#0"
        },
        "east": {
          "uv": [
            0,
            0,
            4.25,
            2.25
          ],
          "texture": "#0"
        },
        "south": {
          "uv": [
            5,
            0,
            5.75,
            2.25
          ],
          "texture": "#0"
        },
        "west": {
          "uv": [
            0,
            2.25,
            4.25,
            4.5
          ],
          "texture": "#0"
        },
        "up": {
          "uv": [
            5,
            4.25,
            4.25,
            0
          ],
          "texture": "#0"
        },
        "down": {
          "uv": [
            5,
            4.25,
            4.25,
            8.5
          ],
          "texture": "#0"
        }
      }
    },
    {
      "from": [
        0,
        14,
        12
      ],
      "to": [
        3,
        20,
        14
      ],
      "faces": {
        "north": {
          "uv": [
            5.75,
            3.5,
            6.5,
            5
          ],
          "texture": "#0"
        },
        "east": {
          "uv": [
            6.5,
            5,
            7,
            6.5
          ],
          "texture": "#0"
        },
        "south": {
          "uv": [
            5,
            5.75,
            5.75,
            7.25
          ],
          "texture": "#0"
        },
        "west": {
          "uv": [
            5.75,
            6.5,
            6.25,
            8
          ],
          "texture": "#0"
        },
        "up": {
          "uv": [
            8.25,
            7.5,
            7.5,
            7
          ],
          "texture": "#0"
        },
        "down": {
          "uv": [
            8.25,
            7.5,
            7.5,
            8
          ],
          "texture": "#0"
        }
      }
    },
    {
      "from": [
        0,
        14,
        -11
      ],
      "to": [
        3,
        20,
        -9
      ],
      "faces": {
        "north": {
          "uv": [
            5.75,
            5,
            6.5,
            6.5
          ],
          "texture": "#0"
        },
        "east": {
          "uv": [
            6.25,
            6.5,
            6.75,
            8
          ],
          "texture": "#0"
        },
        "south": {
          "uv": [
            6.5,
            0,
            7.25,
            1.5
          ],
          "texture": "#0"
        },
        "west": {
          "uv": [
            3,
            6.75,
            3.5,
            8.25
          ],
          "texture": "#0"
        },
        "up": {
          "uv": [
            0.75,
            8.25,
            0,
            7.75
          ],
          "texture": "#0"
        },
        "down": {
          "uv": [
            1.5,
            7.75,
            0.75,
            8.25
          ],
          "texture": "#0"
        }
      }
    },
    {
      "from": [
        1,
        15,
        -14
      ],
      "to": [
        2,
        19,
        -11
      ],
      "faces": {
        "north": {
          "uv": [
            3.5,
            6.75,
            3.75,
            7.75
          ],
          "texture": "#0"
        },
        "east": {
          "uv": [
            6.75,
            6.5,
            7.5,
            7.5
          ],
          "texture": "#0"
        },
        "south": {
          "uv": [
            7.75,
            2.5,
            8,
            3.5
          ],
          "texture": "#0"
        },
        "west": {
          "uv": [
            7,
            1.5,
            7.75,
            2.5
          ],
          "texture": "#0"
        },
        "up": {
          "uv": [
            8,
            5.25,
            7.75,
            4.5
          ],
          "texture": "#0"
        },
        "down": {
          "uv": [
            5.25,
            7.75,
            5,
            8.5
          ],
          "texture": "#0"
        }
      }
    },
    {
      "from": [
        1,
        15,
        14
      ],
      "to": [
        2,
        19,
        17
      ],
      "faces": {
        "north": {
          "uv": [
            3.5,
            7.75,
            3.75,
            8.75
          ],
          "texture": "#0"
        },
        "east": {
          "uv": [
            7,
            2.5,
            7.75,
            3.5
          ],
          "texture": "#0"
        },
        "south": {
          "uv": [
            7.75,
            3.5,
            8,
            4.5
          ],
          "texture": "#0"
        },
        "west": {
          "uv": [
            7,
            3.5,
            7.75,
            4.5
          ],
          "texture": "#0"
        },
        "up": {
          "uv": [
            5.5,
            8.5,
            5.25,
            7.75
          ],
          "texture": "#0"
        },
        "down": {
          "uv": [
            8,
            5.25,
            7.75,
            6
          ],
          "texture": "#0"
        }
      }
    },
    {
      "from": [
        0,
        14,
        -9
      ],
      "to": [
        3,
        21,
        -7
      ],
      "faces": {
        "north": {
          "uv": [
            5,
            2.25,
            5.75,
            4
          ],
          "texture": "#0"
        },
        "east": {
          "uv": [
            3.75,
            4.5,
            4.25,
            6.25
          ],
          "texture": "#0"
        },
        "south": {
          "uv": [
            5,
            4,
            5.75,
            5.75
          ],
          "texture": "#0"
        },
        "west": {
          "uv": [
            3.75,
            6.25,
            4.25,
            8
          ],
          "texture": "#0"
        },
        "up": {
          "uv": [
            2.25,
            8.25,
            1.5,
            7.75
          ],
          "texture": "#0"
        },
        "down": {
          "uv": [
            8.5,
            1.5,
            7.75,
            2
          ],
          "texture": "#0"
        }
      }
    },
    {
      "from": [
        0,
        14,
        10
      ],
      "to": [
        3,
        21,
        12
      ],
      "faces": {
        "north": {
          "uv": [
            5.75,
            0,
            6.5,
            1.75
          ],
          "texture": "#0"
        },
        "east": {
          "uv": [
            6.5,
            1.5,
            7,
            3.25
          ],
          "texture": "#0"
        },
        "south": {
          "uv": [
            5.75,
            1.75,
            6.5,
            3.5
          ],
          "texture": "#0"
        },
        "west": {
          "uv": [
            6.5,
            3.25,
            7,
            5
          ],
          "texture": "#0"
        },
        "up": {
          "uv": [
            8.5,
            2.5,
            7.75,
            2
          ],
          "texture": "#0"
        },
        "down": {
          "uv": [
            3,
            7.75,
            2.25,
            8.25
          ],
          "texture": "#0"
        }
      }
    }
  ],
  "display": {
    "thirdperson_righthand": {
      "translation": [
        6.75,
        13,
        8.75
      ],
      "scale": [
        1,
        1.36523,
        1
      ]
    }
  },
  "groups": [
    {
      "name": "Hacha",
      "origin": [
        8,
        8,
        8
      ],
      "color": 0,
      "children": [
        {
          "name": "Mango",
          "origin": [
            8,
            8,
            8
          ],
          "color": 0,
          "children": [
            0,
            1
          ]
        },
        {
          "name": "Hacha cabeza",
          "origin": [
            8,
            8,
            8
          ],
          "color": 0,
          "children": [
            2,
            3,
            4,
            5,
            6,
            7,
            8
          ]
        }
      ]
    }
  ]
}