{
  "credit": "Made with Blockbench",
  "elements": [
    {
      "from": [
        6,
        2,
        7
      ],
      "to": [
        8,
        12,
        9
      ],
      "faces": {
        "north": {
          "uv": [
            0,
            0,
            1,
            5
          ],
          "texture": "#0"
        },
        "east": {
          "uv": [
            1,
            0,
            2,
            5
          ],
          "texture": "#0"
        },
        "south": {
          "uv": [
            2,
            0,
            3,
            5
          ],
          "texture": "#0"
        },
        "west": {
          "uv": [
            3,
            0,
            4,
            5
          ],
          "texture": "#0"
        },
        "up": {
          "uv": [
            7,
            7,
            6,
            6
          ],
          "texture": "#0"
        },
        "down": {
          "uv": [
            2,
            7,
            1,
            8
          ],
          "texture": "#0"
        }
      }
    },
    {
      "from": [
        5,
        0,
        6
      ],
      "to": [
        9,
        2,
        10
      ],
      "faces": {
        "north": {
          "uv": [
            4,
            0,
            8,
            2
          ],
          "texture": "#1"
        },
        "east": {
          "uv": [
            4,
            2,
            8,
            4
          ],
          "texture": "#1"
        },
        "south": {
          "uv": [
            4,
            4,
            8,
            6
          ],
          "texture": "#1"
        },
        "west": {
          "uv": [
            4,
            6,
            8,
            8
          ],
          "texture": "#1"
        },
        "up": {
          "uv": [
            4,
            4,
            0,
            0
          ],
          "texture": "#1"
        },
        "down": {
          "uv": [
            4,
            4,
            0,
            8
          ],
          "texture": "#1"
        }
      }
    },
    {
      "from": [
        6,
        12,
        3
      ],
      "to": [
        8,
        14,
        13
      ],
      "faces": {
        "north": {
          "uv": [
            2,
            7,
            3,
            8
          ],
          "texture": "#0"
        },
        "east": {
          "uv": [
            4,
            0,
            9,
            1
          ],
          "texture": "#0"
        },
        "south": {
          "uv": [
            7,
            2,
            8,
            3
          ],
          "texture": "#0"
        },
        "west": {
          "uv": [
            4,
            1,
            9,
            2
          ],
          "texture": "#0"
        },
        "up": {
          "uv": [
            5,
            7,
            4,
            2
          ],
          "texture": "#0"
        },
        "down": {
          "uv": [
            1,
            5,
            0,
            10
          ],
          "texture": "#0"
        }
      }
    },
    {
      "from": [
        6,
        10,
        1
      ],
      "to": [
        8,
        12,
        5
      ],
      "faces": {
        "north": {
          "uv": [
            3,
            7,
            4,
            8
          ],
          "texture": "#0"
        },
        "east": {
          "uv": [
            1,
            5,
            3,
            6
          ],
          "texture": "#0"
        },
        "south": {
          "uv": [
            7,
            3,
            8,
            4
          ],
          "texture": "#0"
        },
        "west": {
          "uv": [
            5,
            2,
            7,
            3
          ],
          "texture": "#0"
        },
        "up": {
          "uv": [
            4,
            7,
            3,
            5
          ],
          "texture": "#0"
        },
        "down": {
          "uv": [
            6,
            3,
            5,
            5
          ],
          "texture": "#0"
        }
      }
    },
    {
      "from": [
        6,
        10,
        11
      ],
      "to": [
        8,
        12,
        15
      ],
      "faces": {
        "north": {
          "uv": [
            4,
            7,
            5,
            8
          ],
          "texture": "#0"
        },
        "east": {
          "uv": [
            5,
            5,
            7,
            6
          ],
          "texture": "#0"
        },
        "south": {
          "uv": [
            7,
            4,
            8,
            5
          ],
          "texture": "#0"
        },
        "west": {
          "uv": [
            1,
            6,
            3,
            7
          ],
          "texture": "#0"
        },
        "up": {
          "uv": [
            7,
            5,
            6,
            3
          ],
          "texture": "#0"
        },
        "down": {
          "uv": [
            6,
            6,
            5,
            8
          ],
          "texture": "#0"
        }
      }
    }
  ],
  "display": {
    "thirdperson_righthand": {
      "rotation": [
        20,
        0,
        0
      ],
      "translation": [
        1.25,
        6.25,
        4.5
      ]
    }
  },
  "groups": [
    {
      "name": "Pico_ruby",
      "origin": [
        8,
        8,
        8
      ],
      "color": 0,
      "children": [
        {
          "name": "Mango",
          "origin": [
            8,
            8,
            8
          ],
          "color": 0,
          "children": [
            0,
            1
          ]
        },
        {
          "name": "Cabeza",
          "origin": [
            8,
            8,
            8
          ],
          "color": 0,
          "children": [
            2,
            3,
            4
          ]
        }
      ]
    }
  ]
}